[
    {
        "@context": [
            "https://www.w3.org/2018/credentials/v1"
        ],
        "type": [
            "VerifiablePresentation"
        ],
        "verifiableCredential": [
            {
                "@context": [
                    "https://www.w3.org/2018/credentials/v1",
                    "https://www.w3.org/2018/credentials/examples/v1"
                ],
                "id": "https://example.com/credentials/1872",
                "type": [
                    "VerifiableCredential",
                    "IDCardCredential"
                ],
                "issuer": {
                    "id": "did:example:issuer"
                },
                "issuanceDate": "2010-01-01T19:23:24Z",
                "credentialSubject": {
                    "given_name": "Fredrik",
                    "family_name": "Strömberg",
                    "birthdate": "1949-01-22"
                },
                "proof": {
                    "type": "Ed25519Signature2018",
                    "created": "2021-03-19T15:30:15Z",
                    "jws": "eyJhbGciOiJFZERTQSIsImI2NCI6ZmFsc2UsImNyaXQiOlsiYjY0Il19..PT8yCqVjj5ZHD0W36zsBQ47oc3El07WGPWaLUuBTOT48IgKI5HDoiFUt9idChT_Zh5s8cF_2cSRWELuD8JQdBw",
                    "proofPurpose": "assertionMethod",
                    "verificationMethod": "did:example:issuer#keys-1"
                }
            }
        ],
        "id": "ebc6f1c2",
        "holder": "did:example:holder",
        "proof": {
            "type": "Ed25519Signature2018",
            "created": "2021-03-19T15:30:15Z",
            "challenge": "n-0S6_WzA2Mj",
            "domain": "https://client.example.org/cb",
            "jws": "eyJhbGciOiJFZERTQSIsImI2NCI6ZmFsc2UsImNyaXQiOlsiYjY0Il19..GF5Z6TamgNE8QjE3RbiDOj3n_t25_1K7NVWMUASe_OEzQV63GaKdu235MCS3hIYvepcNdQ_ZOKpGNCf0vIAoDA",
            "proofPurpose": "authentication",
            "verificationMethod": "did:example:holder#key-1"
        }
    },
    {
        "presentation":
        "eyJhbGciOiJSUzI1NiIsInR5cCI6IkpXVCIsImtpZCI6ImRpZDpleGFtcGxlOmFiZmUxM2Y3MTIxMjA0
        MzFjMjc2ZTEyZWNhYiNrZXlzLTEifQ.eyJzdWIiOiJkaWQ6ZXhhbXBsZTplYmZlYjFmNzEyZWJjNmYxY
        zI3NmUxMmVjMjEiLCJqdGkiOiJodHRwOi8vZXhhbXBsZS5lZHUvY3JlZGVudGlhbHMvMzczMiIsImlzc
        yI6Imh0dHBzOi8vZXhhbXBsZS5jb20va2V5cy9mb28uandrIiwibmJmIjoxNTQxNDkzNzI0LCJpYXQiO
        jE1NDE0OTM3MjQsImV4cCI6MTU3MzAyOTcyMywibm9uY2UiOiI2NjAhNjM0NUZTZXIiLCJ2YyI6eyJAY
        29udGV4dCI6WyJodHRwczovL3d3dy53My5vcmcvMjAxOC9jcmVkZW50aWFscy92MSIsImh0dHBzOi8vd
        3d3LnczLm9yZy8yMDE4L2NyZWRlbnRpYWxzL2V4YW1wbGVzL3YxIl0sInR5cGUiOlsiVmVyaWZpYWJsZ
        UNyZWRlbnRpYWwiLCJVbml2ZXJzaXR5RGVncmVlQ3JlZGVudGlhbCJdLCJjcmVkZW50aWFsU3ViamVjd
        CI6eyJkZWdyZWUiOnsidHlwZSI6IkJhY2hlbG9yRGVncmVlIiwibmFtZSI6IjxzcGFuIGxhbmc9J2ZyL
        UNBJz5CYWNjYWxhdXLDqWF0IGVuIG11c2lxdWVzIG51bcOpcmlxdWVzPC9zcGFuPiJ9fX19.KLJo5GAy
        BND3LDTn9H7FQokEsUEi8jKwXhGvoN3JtRa51xrNDgXDb0cq1UTYB-rK4Ft9YVmR1NI_ZOF8oGc_7wAp
        8PHbF2HaWodQIoOBxxT-4WNqAxft7ET6lkH-4S6Ux3rSGAmczMohEEf8eCeN-jC8WekdPl6zKZQj0YPB
        1rx6X0-xlFBs7cl6Wt8rfBP_tZ9YgVWrQmUWypSioc0MUyiphmyEbLZagTyPlUyflGlEdqrZAv6eSe6R
        txJy6M1-lD7a5HTzanYTWBPAUHDZGyGKXdJw-W_x0IWChBzI8t3kpG253fg6V3tPgHeKXE94fz_QpYfg
        --7kLsyBAfQGbg"
    }
]